{
  "data": [
    {
      "id": 1,
      "name": "Rectangle",
      "image": "/assets/vectors/elements/rectangle.png",
      "src": ""
    },
    {
      "id": 2,
      "name": "Triangle",
      "image": "/assets/vectors/elements/triangle.png",
      "src": ""
    },
    {
      "id": 3,
      "name": "Polygon",
      "image": "/assets/vectors/elements/polygon.png",
      "src": ""
    },
    {
      "id": 4,
      "name": "Circle",
      "image": "/assets/vectors/elements/circle.png",
      "src": ""
    },
    {
      "id": 5,
      "name": "Eclipse",
      "image": "/assets/vectors/elements/eclipse.png",
      "src": ""
    },
    {
      "id": 5,
      "name": "Star",
      "image": "/assets/vectors/elements/star.png",
      "src": ""
    },
    {
      "id": 6,
      "name": "Line",
      "image": "/assets/vectors/elements/line.png",
      "src": ""
    }
  ]
}
